{"count":11,"page":1,"page_size":10,"total_pages":2,"incidents":[{"id":"78c1a4e4","title":"MyAnimeList Emergency Maintenance","date":"2023-05-10T22:55:00.530Z","modified":"2023-09-20T00:06:50.003Z","scheduled":null,"severity":"partial-outage","affectedsystems":["import"],"resolved":false,"content":"<p>MyAnimeList has gone down for emergency maintenance. We are monitoring the situation and will update\nthis page when we have more information. For more information, please see the <a href=\"https://help.myanimelist.net/hc/en-us/articles/18386999339417-Notice-of-Emergency-Maintenance-on-May-10-2023\" target=\"_blank\" rel=\"noopener noreferrer\" class=\"external\">MyAnimeList status\npage</a></p>\n<!--- language code: en -->\n"},{"id":"68e26d75","title":"Site down for upgrades","date":"2021-09-16T05:30:01.908Z","modified":"2021-09-16T08:27:48.900Z","scheduled":null,"severity":"major-outage","affectedsystems":["api","feeds","import"],"resolved":true,"content":"<p>Due to an unexpected issue with a software upgrade, Kitsu is temporarily down.</p>\n<!--- language code: en -->\n"},{"id":"0fe30bcd","title":"MAL Sync","date":"2021-01-23T07:48:39.000Z","modified":"2023-09-20T00:06:50.001Z","scheduled":null,"severity":"major-outage","affectedsystems":["sync"],"resolved":false,"content":"<p>MyAnimeList has added a Captcha to their login form and our sync is no longer\nworking. We are working to move it over to their new API, but until then it will\nbe down.</p>\n<!--- language code: en -->\n"},{"id":"b30cae02","title":"Moving To New Servers","date":"2021-01-23T03:04:39.000Z","modified":"2023-09-20T00:06:50.000Z","scheduled":"2021-01-23T03:04:39.000Z","duration":180,"severity":"under-maintenance","affectedsystems":["api","feeds","sync","import"],"resolved":true,"content":"<p>We're moving Kitsu to new servers! We should be back online shortly, and if you\nhave any questions you can talk to us on <a href=\"https://invite.gg/kitsu\" target=\"_blank\" rel=\"noopener noreferrer\" class=\"external\">our Discord</a>\nin #tech-support!</p>\n<!--- language code: en -->\n"},{"id":"53fb0ccf","title":"Kitsu Unavailable","date":"2021-01-08T19:50:50.461Z","modified":"2021-01-08T20:48:34.000Z","scheduled":null,"severity":"degraded-performance","affectedsystems":["api","feeds","sync","import"],"resolved":true,"content":"<p>Due to an error, Kitsu is currently unavailable. We are actively working to restore access, and we ask for your patience.</p>\n<!--- language code: en -->\n<div class=\"update-block\">\n          <div class=\"update-block-date\">2021-01-08T20:17:11.000Z</div>\n          <div class=\"update-block-content\">\n            <div class=\"update-block-title\">Recovering</div>\n            <div class=\"update-block-body\">\n<p>We've restored access to Kitsu but our servers are still recovering and catching up, so the site may be slow for now.</p>\n</div></div></div>\n<div class=\"update-block\">\n          <div class=\"update-block-date\">2021-01-08T20:48:34.000Z</div>\n          <div class=\"update-block-content\">\n            <div class=\"update-block-title\">Resolved</div>\n            <div class=\"update-block-body\">\n<p>Performance has recovered to normal levels and the site should be operating normally now.</p>\n</div></div></div>\n"},{"id":"73cdd35a","title":"Search Outage","date":"2020-11-13T10:42:00.000Z","modified":"2023-09-20T00:06:49.998Z","scheduled":null,"severity":"partial-outage","affectedsystems":["api"],"resolved":true,"content":"<p>Our quick search is currently unavailable. Advanced search for <a href=\"https://kitsu.io/anime\" target=\"_blank\" rel=\"noopener noreferrer\" class=\"external\">anime</a> &amp; <a href=\"https://kitsu.io/manga\" target=\"_blank\" rel=\"noopener noreferrer\" class=\"external\">manga</a> is unaffected by this outage.</p>\n<!--- language code: en -->\n<div class=\"update-block\">\n          <div class=\"update-block-date\">2020-11-15T00:09:32.000Z</div>\n          <div class=\"update-block-content\">\n            <div class=\"update-block-title\">Resolved</div>\n            <div class=\"update-block-body\">\n<p>This incident has been resolved.</p>\n</div></div></div>\n"},{"id":"40a01458","title":"Feed & Notifications Delayed","date":"2020-08-17T11:42:20.814Z","modified":"2023-09-20T00:06:49.997Z","scheduled":null,"severity":"degraded-performance","affectedsystems":["feeds"],"resolved":true,"content":"<p>Posts and notifications are not appearing on user feeds.</p>\n<p>Posts are not being lost and will appear in user feeds when once the post queue has decreased. Comments and likes are not affected by this.</p>\n<div class=\"update-block\">\n          <div class=\"update-block-date\">2020-08-17T14:38:07.000Z</div>\n          <div class=\"update-block-content\">\n            <div class=\"update-block-title\">Monitoring</div>\n            <div class=\"update-block-body\">\n<p>We are investigating the cause of this incident.</p>\n</div></div></div>\n<div class=\"update-block\">\n          <div class=\"update-block-date\">2020-08-17T16:02:09.000Z</div>\n          <div class=\"update-block-content\">\n            <div class=\"update-block-title\">Update</div>\n            <div class=\"update-block-body\">\n<p>There is an issue with our worker services that handle feed posts and notifications that are preventing them from being sent to users.</p>\n</div></div></div>\n<div class=\"update-block\">\n          <div class=\"update-block-date\">2020-08-17T16:48:26.000Z</div>\n          <div class=\"update-block-content\">\n            <div class=\"update-block-title\">Mitigated</div>\n            <div class=\"update-block-body\">\n<p>The issue has been remediated and the queue for delivering posts and comments are going down. We are continuing to monitor for any futher issues.</p>\n</div></div></div>\n<div class=\"update-block\">\n          <div class=\"update-block-date\">2020-08-17T17:05:19.000Z</div>\n          <div class=\"update-block-content\">\n            <div class=\"update-block-title\">Resolved</div>\n            <div class=\"update-block-body\">\n<p>This incident has been resolved.</p>\n</div></div></div>\n<!--- language code: en -->\n"},{"id":"a1805e8c","title":"DNS Outage","date":"2020-08-10T19:00:00.000Z","modified":"2020-08-10T19:20:00.000Z","scheduled":null,"severity":"major-outage","affectedsystems":["api","cdn","dns"],"resolved":true,"content":"<p>Our domain auto-renewal payment was rejected by PayPal.</p>\n<div class=\"update-block\">\n          <div class=\"update-block-date\">2020-08-10T19:20:00.000Z</div>\n          <div class=\"update-block-content\">\n            <div class=\"update-block-title\">Resolved</div>\n            <div class=\"update-block-body\">\n<p>We have approved the rejected payment. Service may remain degraded for several hours while the DNS records re-propogate.</p>\n</div></div></div>\n<!--- language code: en -->\n"},{"id":"4eed1914","title":"Login Problems","date":"2020-07-30T19:26:36.953Z","modified":"2023-09-20T00:06:49.995Z","scheduled":null,"severity":"partial-outage","affectedsystems":["api"],"resolved":true,"content":"<p>Logins are failing, our engineers are working on the problem.</p>\n<div class=\"update-block\">\n          <div class=\"update-block-date\">2020-07-30T19:35:24.000Z</div>\n          <div class=\"update-block-content\">\n            <div class=\"update-block-title\">Mitigated</div>\n            <div class=\"update-block-body\">\n<p>There is an issue with a legacy database that stores Aozora data.  We've disabled Aozora transfers for the moment to fix this for other users, and we will be restoring service for Aozora users shortly.</p>\n</div></div></div>\n<div class=\"update-block\">\n          <div class=\"update-block-date\">2020-07-30T19:45:00.000Z</div>\n          <div class=\"update-block-content\">\n            <div class=\"update-block-title\">Resolved</div>\n            <div class=\"update-block-body\">\n<p>We've restored service for Aozora users, everything should be running smoothly again now!</p>\n</div></div></div>\n<!--- language code: en -->\n"},{"id":"09860386","title":"Cloudflare Outage","date":"2020-07-17T21:45:00.000Z","modified":"2023-09-20T00:06:49.993Z","scheduled":null,"severity":"partial-outage","affectedsystems":["api"],"resolved":true,"content":"<p>Our API is down in some areas due to a <a href=\"https://www.cloudflarestatus.com/incidents/b888fyhbygb8\" target=\"_blank\" rel=\"noopener noreferrer\" class=\"external\">large internet provider outage</a>.  We are monitoring the situation and will keep you updated</p>\n<div class=\"update-block\">\n          <div class=\"update-block-date\">2020-07-17T23:09:29.000Z</div>\n          <div class=\"update-block-content\">\n            <div class=\"update-block-title\">Resolved</div>\n            <div class=\"update-block-body\">\n<p>Cloudflare has announced the all-clear and Kitsu should be reliably back online.  Thank you for your patience</p>\n</div></div></div>\n<!--- language code: en -->\n"}]}