{"count":11,"page":2,"page_size":10,"total_pages":2,"incidents":[{"id":"601b019a","title":"MAL Rate Limiting","date":"2020-07-07T21:57:10.674Z","modified":"2023-05-28T00:06:55.301Z","scheduled":null,"severity":"partial-outage","affectedsystems":["sync"],"resolved":true,"content":"<p>MAL is rate limiting our synchronization system</p>\n<!--- language code: en -->\n"}]}