{"count":6,"page":1,"page_size":3,"total_pages":2,"periods":[{"id":"2023-5","incidents":[{"id":"78c1a4e4","title":"MyAnimeList Emergency Maintenance","date":"2023-05-10T22:55:00.530Z","modified":"2024-01-11T00:07:11.178Z","scheduled":null,"severity":"partial-outage","affectedsystems":["import"],"resolved":false,"content":"<p>MyAnimeList has gone down for emergency maintenance. We are monitoring the situation and will update\nthis page when we have more information. For more information, please see the <a href=\"https://help.myanimelist.net/hc/en-us/articles/18386999339417-Notice-of-Emergency-Maintenance-on-May-10-2023\" target=\"_blank\" rel=\"noopener noreferrer\" class=\"external\">MyAnimeList status\npage</a></p>\n<!--- language code: en -->\n"}],"order":1,"count":1},{"id":"2021-9","incidents":[{"id":"68e26d75","title":"Site down for upgrades","date":"2021-09-16T05:30:01.908Z","modified":"2021-09-16T08:27:48.900Z","scheduled":null,"severity":"major-outage","affectedsystems":["api","feeds","import"],"resolved":true,"content":"<p>Due to an unexpected issue with a software upgrade, Kitsu is temporarily down.</p>\n<!--- language code: en -->\n"}],"order":21,"count":1},{"id":"2021-1","incidents":[{"id":"0fe30bcd","title":"MAL Sync","date":"2021-01-23T07:48:39.000Z","modified":"2024-01-11T00:07:11.177Z","scheduled":null,"severity":"major-outage","affectedsystems":["sync"],"resolved":false,"content":"<p>MyAnimeList has added a Captcha to their login form and our sync is no longer\nworking. We are working to move it over to their new API, but until then it will\nbe down.</p>\n<!--- language code: en -->\n"},{"id":"b30cae02","title":"Moving To New Servers","date":"2021-01-23T03:04:39.000Z","modified":"2024-01-11T00:07:11.176Z","scheduled":"2021-01-23T03:04:39.000Z","duration":180,"severity":"under-maintenance","affectedsystems":["api","feeds","sync","import"],"resolved":true,"content":"<p>We're moving Kitsu to new servers! We should be back online shortly, and if you\nhave any questions you can talk to us on <a href=\"https://invite.gg/kitsu\" target=\"_blank\" rel=\"noopener noreferrer\" class=\"external\">our Discord</a>\nin #tech-support!</p>\n<!--- language code: en -->\n"},{"id":"53fb0ccf","title":"Kitsu Unavailable","date":"2021-01-08T19:50:50.461Z","modified":"2021-01-08T20:48:34.000Z","scheduled":null,"severity":"degraded-performance","affectedsystems":["api","feeds","sync","import"],"resolved":true,"content":"<p>Due to an error, Kitsu is currently unavailable. We are actively working to restore access, and we ask for your patience.</p>\n<!--- language code: en -->\n<div class=\"update-block\">\n          <div class=\"update-block-date\">2021-01-08T20:17:11.000Z</div>\n          <div class=\"update-block-content\">\n            <div class=\"update-block-title\">Recovering</div>\n            <div class=\"update-block-body\">\n<p>We've restored access to Kitsu but our servers are still recovering and catching up, so the site may be slow for now.</p>\n</div></div></div>\n<div class=\"update-block\">\n          <div class=\"update-block-date\">2021-01-08T20:48:34.000Z</div>\n          <div class=\"update-block-content\">\n            <div class=\"update-block-title\">Resolved</div>\n            <div class=\"update-block-body\">\n<p>Performance has recovered to normal levels and the site should be operating normally now.</p>\n</div></div></div>\n"}],"order":29,"count":3}]}