{"count":4,"page":2,"page_size":3,"total_pages":2,"periods":[{"id":"2020-7","incidents":[{"id":"4eed1914","title":"Login Problems","date":"2020-07-30T19:26:36.953Z","modified":"2021-01-29T00:30:57.348Z","scheduled":null,"severity":"partial-outage","affectedsystems":["api"],"resolved":true,"content":"<p>Logins are failing, our engineers are working on the problem.</p>\n<div class=\"update-block\">\n          <div class=\"update-block-date\">2020-07-30T19:35:24.000Z</div>\n          <div class=\"update-block-content\">\n            <div class=\"update-block-title\">Mitigated</div>\n            <div class=\"update-block-body\">\n<p>There is an issue with a legacy database that stores Aozora data.  We've disabled Aozora transfers for the moment to fix this for other users, and we will be restoring service for Aozora users shortly.</p>\n</div></div></div>\n<div class=\"update-block\">\n          <div class=\"update-block-date\">2020-07-30T19:45:00.000Z</div>\n          <div class=\"update-block-content\">\n            <div class=\"update-block-title\">Resolved</div>\n            <div class=\"update-block-body\">\n<p>We've restored service for Aozora users, everything should be running smoothly again now!</p>\n</div></div></div>\n<!--- language code: en -->\n"},{"id":"09860386","title":"Cloudflare Outage","date":"2020-07-17T21:45:00.000Z","modified":"2021-01-29T00:30:57.347Z","scheduled":null,"severity":"partial-outage","affectedsystems":["api"],"resolved":true,"content":"<p>Our API is down in some areas due to a <a href=\"https://www.cloudflarestatus.com/incidents/b888fyhbygb8\" target=\"_blank\" rel=\"noopener noreferrer\" class=\"external\">large internet provider outage</a>.  We are monitoring the situation and will keep you updated</p>\n<div class=\"update-block\">\n          <div class=\"update-block-date\">2020-07-17T23:09:29.000Z</div>\n          <div class=\"update-block-content\">\n            <div class=\"update-block-title\">Resolved</div>\n            <div class=\"update-block-body\">\n<p>Cloudflare has announced the all-clear and Kitsu should be reliably back online.  Thank you for your patience</p>\n</div></div></div>\n<!--- language code: en -->\n"},{"id":"601b019a","title":"MAL Rate Limiting","date":"2020-07-07T21:57:10.674Z","modified":"2021-01-29T00:30:57.342Z","scheduled":null,"severity":"partial-outage","affectedsystems":["sync"],"resolved":true,"content":"<p>MAL is rate limiting our synchronization system</p>\n<!--- language code: en -->\n"}],"order":7,"count":3}]}